{
	"type": "PlayerItem",
	"textureSize": [
		16,
		16
	],
	"models": [
		{
			"id": "Level 1",
			"type": "ModelBox",
			"attachTo": "body",
			"invertAxis": "yz",
			"mirrorTexture": "u",
			"translate": [
				-7,
				-14,
				-4
			],
			"rotate": [
				0,
				0,
				0
			],
			"sprites": [
				{
					"comment": "Axe",
					"textureOffset": [
						0,
						0
					],
					"coordinates": [
						0,
						0,
						0,
						16,
						16,
						1
					]
				}
			]
		}
	]
}