{
	"type": "PlayerItem",
	"textureSize": [
		16,
		16
	],
	"models": [
		{
			"id": "SideA",
			"type": "ModelBox",
			"attachTo": "head",
			"invertAxis": "yz",
			"translate": [
				0,
				5,
				0
			],
			"rotate": [
				-45,
				0,
				0
			],
			"scale": 0.75,
			"boxes": [
				{
					"comment": "Tail",
					"textureOffset": [
						0,
						5
					],
					"coordinates": [
						-13,
						-2.5,
						0,
						8,
						5,
						0
					]
				},
				{
					"comment": "Head",
					"textureOffset": [
						0,
						0
					],
					"coordinates": [
						5,
						-2.5,
						0,
						8,
						5,
						0
					]
				}
			]
		},
		{
			"id": "SideB",
			"baseId": "SideA",
			"rotate": [
				45,
				0,
				0
			]
		},
		{
			"id": "Back",
			"type": "ModelBox",
			"attachTo": "head",
			"invertAxis": "yz",
			"translate": [
				0,
				5,
				0
			],
			"rotate": [
				45,
				0,
				0
			],
			"scale": 0.75,
			"boxes": [
				{
					"comment": "Back (tex coord V is 5 instead of 10!)",
					"textureOffset": [
						0,
						5
					],
					"coordinates": [
						12,
						-2.5,
						-2.5,
						0,
						5,
						5
					]
				}
			]
		}
	]
}