{
	"type": "PlayerItem",
	"usePlayerTexture": true,
	"textureSize": [
		64,
		64
	],
	"models": [
		{
			"id": "tail",
			"type": "ModelBox",
			"attachTo": "body",
			"invertAxis": "z",
			"translate": [
				0,
				0,
				0
			],
			"submodels": [
				{
					"part": "tail",
					"id": "tail",
					"invertAxis": "z",
					"translate": [
						0,
						3.5,
						-7.2
					],
					"rotate": [
						-57,
						0,
						0
					],
					"boxes": [
						{
							"coordinates": [
								-0.5,
								-3,
								-7.2,
								1,
								7,
								1
							],
							"textureOffset": [
								60,
								20
							]
						}
					]
				},
				{
					"part": "tail2",
					"id": "tail2",
					"invertAxis": "z",
					"translate": [
						0,
						-8.8,
						-16.9
					],
					"rotate": [
						-102.5,
						0,
						0
					],
					"boxes": [
						{
							"coordinates": [
								-0.5,
								4.5,
								-22,
								1,
								6,
								1
							],
							"textureOffset": [
								60,
								20
							]
						}
					]
				}
			]
		}
	]
}