{
	"type": "PlayerItem",
	"textureSize": [
		16,
		16
	],
	"models": [
		{
			"id": "Main",
			"type": "ModelBox",
			"attachTo": "body",
			"invertAxis": "",
			"translate": [
				1,
				0,
				3
			],
			"rotate": [
				0,
				0,
				0
			],
			"sprites": [
				{
					"textureOffset": [
						0,
						0
					],
					"coordinates": [
						0,
						0,
						0,
						16,
						16,
						1
					]
				}
			]
		},
		{
			"id": "Other",
			"baseId": "Main",
			"attachTo": "body",
			"invertAxis": "x",
			"mirrorTexture": "u"
		}
	]
}